0,-90,-85,-80,-75,-70,-65,-60,-55,-50,-45,-40,-35,-30,-25,-20,-15,-10,-5,0,5,10,15,20,25,30,35,40,45,50,55,60,65,70,75,80,85,90,
5.5,-27.29,-27.5445,-27.2407,-30.6002,-28.3881,-28.0876,-27.7974,-29.7391,-28.4987,-27.7933,-27.662,-28.8482,-26.6376,-24.3772,-24.4512,-23.9165,-24.1928,-24.4879,-25.3314,-25.5176,-25.6233,-25.7606,-26.3747,-27.6261,-27.6313,-26.9503,-27.7414,-29.8894,-30.7579,-29.7081,-28.3243,-28.8246,-30.3417,-31.6844,-29.145,-30.0015,-31.4964,
5.575,-27.9679,-27.5894,-26.117,-29.0174,-28.201,-28.8878,-26.6043,-27.0919,-27.1881,-27.9521,-31.2455,-28.3187,-24.8593,-23.0216,-23.9237,-23.0336,-23.3524,-23.1178,-24.3941,-23.9237,-24.4099,-25.3977,-26.7527,-28.7122,-28.0028,-29.9512,-28.8394,-30.3258,-29.4812,-26.7705,-26.8856,-28.877,-29.8571,-30.1511,-27.2758,-29.416,-30.8074,
5.65,-29.1598,-27.829,-26.6725,-28.7202,-28.4349,-27.9927,-25.9043,-25.1278,-28.1208,-28.7305,-31.3845,-27.0419,-23.783,-22.7633,-23.6324,-22.6726,-21.6568,-20.0395,-23.1597,-22.6199,-23.3657,-24.8823,-27.236,-30.7119,-28.3041,-31.1305,-32.3914,-31.9222,-29.8242,-27.4845,-27.1361,-28.9511,-30.0249,-29.4194,-26.5891,-28.0567,-29.6116,
5.725,-28.6083,-27.7449,-27.1921,-28.3685,-28.2337,-26.3818,-25.6557,-25.7467,-29.1865,-29.7409,-29.7098,-25.3298,-23.5918,-22.6599,-23.3891,-21.2001,-19.1404,-18.9477,-21.9314,-21.5615,-22.5652,-23.891,-27.1663,-30.8694,-29.8615,-31.4005,-32.5843,-31.934,-30.5306,-28.2595,-27.8338,-29.4265,-30.3883,-28.6484,-25.9037,-26.0478,-28.474,
5.8,-28.2822,-27.7217,-27.9336,-28.2997,-28.0461,-25.9331,-25.8711,-26.4949,-29.7126,-28.9131,-27.1172,-25.1509,-23.6447,-22.6741,-22.3207,-19.3493,-18.4647,-18.2086,-20.9893,-20.751,-21.3084,-22.0084,-26.8372,-31.0741,-31.2724,-31.4063,-32.3931,-32.0533,-31.3713,-30.8929,-29.6311,-30.9759,-30.7912,-28.5835,-26.1002,-26.0672,-28.4243,
5.875,-28.1676,-27.8409,-28.3765,-28.5903,-27.9908,-26.294,-26.983,-30.0011,-28.5342,-27.9076,-25.9695,-25.1351,-23.7756,-22.8159,-20.9443,-19.2479,-18.2273,-17.8894,-20.356,-19.4466,-19.3735,-22.0497,-26.2291,-30.9295,-31.9081,-31.5905,-31.4341,-31.9113,-31.3111,-30.6027,-29.9309,-31.2759,-30.975,-28.9706,-26.4324,-26.2926,-28.2383,
5.95,-28.1525,-28.3482,-29.2324,-28.8159,-27.5731,-27.0614,-27.8275,-30.3177,-27.4532,-25.7279,-25.6102,-25.1492,-23.9433,-22.8702,-20.8794,-19.2233,-18.1829,-17.7975,-17.4662,-18.0992,-19.5421,-22.1616,-25.9184,-30.016,-31.5137,-31.8517,-31.703,-31.9293,-30.6787,-30.0338,-29.8306,-31.454,-31.1181,-29.821,-26.8818,-27.6348,-28.4721,
6.025,-28.3593,-30.9784,-30.3231,-28.4705,-27.3767,-27.9005,-29.7738,-29.5127,-26.6594,-24.763,-25.7089,-26.3209,-25.0006,-22.8028,-20.7928,-19.2367,-18.2439,-18.5024,-17.8465,-18.4105,-19.7209,-22.1675,-25.3688,-28.7193,-29.8071,-31.285,-31.9851,-31.9448,-29.5249,-28.1385,-28.701,-31.442,-31.7424,-30.1934,-27.2826,-28.2974,-28.937,
6.1,-28.6144,-30.9996,-29.8494,-28.1328,-27.3759,-28.3327,-30.2851,-27.0919,-26.0255,-24.8411,-26.5055,-27.3714,-25.0113,-22.5618,-20.6712,-19.2685,-19.1688,-19.169,-18.3162,-18.8643,-20.0199,-22.2971,-25.0904,-25.4218,-28.3907,-29.4886,-31.8184,-31.9313,-28.9723,-27.4242,-28.0801,-30.8207,-31.6356,-29.9043,-27.5788,-28.9016,-29.6897,
6.175,-28.8903,-30.6758,-29.428,-27.7719,-27.4464,-29.087,-29.9103,-26.5978,-25.5971,-25.2119,-27.3588,-27.0861,-24.2797,-22.1779,-20.5212,-19.6781,-19.737,-19.7266,-18.8023,-19.3681,-20.3628,-22.5348,-23.3209,-24.5564,-27.0006,-28.0571,-31.0508,-32.0255,-29.2568,-27.3193,-27.613,-29.9066,-31.1262,-29.8955,-29.5973,-30.8273,-32.2061,
6.25,-29.2781,-29.0139,-29.014,-27.7055,-27.6308,-30.3229,-29.7372,-26.786,-26.1685,-25.9873,-27.3887,-25.0957,-23.5095,-21.2788,-20.1328,-19.9755,-20.1032,-20.2543,-19.2466,-19.8148,-20.638,-22.3957,-22.7206,-24.1384,-24.3418,-26.3895,-30.0666,-31.7779,-29.8378,-29.0511,-27.9818,-28.3252,-30.2443,-29.9893,-30.3185,-31.1913,-32.6595,
6.325,-29.2399,-28.5891,-28.9025,-28.0799,-27.8882,-30.9753,-29.354,-26.7761,-26.3654,-28.0103,-26.4942,-23.4768,-23.0093,-20.6955,-20.2982,-20.2489,-20.3722,-20.5173,-21.9833,-22.1393,-20.8173,-22.3075,-22.6744,-23.9874,-24.4222,-25.0455,-26.9589,-29.7271,-30.3092,-30.0352,-28.6375,-28.7609,-30.1501,-30.1334,-30.5289,-31.342,-32.4974,
6.4,-28.9658,-28.6536,-28.9599,-28.4469,-30.0119,-31.1633,-28.866,-26.4206,-26.3531,-27.5769,-25.9764,-23.2807,-22.5369,-20.844,-20.5538,-20.4542,-20.5041,-20.6614,-21.5665,-21.9334,-20.9591,-22.3426,-22.7865,-24.0728,-24.7991,-25.3878,-26.6801,-29.1918,-30.5306,-30.4108,-29.0894,-28.8923,-29.8447,-29.9007,-30.2562,-31.0096,-32.0861,
6.475,-28.9842,-29.251,-29.4921,-29.8824,-32.1449,-29.7347,-27.1675,-25.9781,-26.4263,-27.4781,-25.7055,-23.2512,-22.0468,-21.0973,-20.8058,-20.6428,-20.7244,-21.1988,-21.6056,-22.0707,-21.1389,-22.5818,-23.0767,-25.2167,-25.246,-25.8407,-26.8602,-28.795,-30.4655,-31.4919,-30.27,-29.7541,-29.1907,-29.4654,-30.428,-30.6072,-31.2676,
6.55,-28.6212,-29.0871,-29.3566,-30.3553,-31.9929,-28.6275,-25.6514,-26.0574,-26.698,-27.5388,-25.1811,-23.2485,-22.1494,-21.2935,-20.9954,-20.9659,-21.7601,-21.7286,-21.9042,-22.5129,-21.3809,-24.676,-24.8364,-26.495,-27.8231,-27.6688,-27.9933,-28.2014,-29.8614,-31.9584,-30.8404,-30.1818,-29.5882,-29.7597,-30.6983,-30.9317,-30.9393,
6.625,-28.4677,-29.0374,-29.2572,-30.4577,-30.9969,-28.0338,-25.8115,-26.6054,-27.7308,-27.445,-25.0236,-23.2716,-22.3428,-21.5246,-21.9726,-22.3643,-22.2452,-22.3839,-22.3712,-24.3274,-27.2594,-28.0778,-27.622,-26.9307,-28.1155,-29.1647,-28.5163,-28.3262,-29.5042,-31.4054,-30.9632,-30.4955,-29.8079,-29.7019,-30.7274,-31.3546,-31.4133,
6.7,-28.5121,-28.9051,-28.9265,-30.8509,-29.6053,-27.257,-26.3789,-27.0851,-28.4449,-27.3961,-25.0488,-24.1544,-22.6589,-21.7831,-22.9723,-22.6872,-22.6353,-22.841,-26.027,-27.9625,-28.875,-28.442,-27.9534,-27.3643,-28.1032,-29.0677,-28.5504,-28.4116,-29.1222,-30.6784,-30.3811,-32.0743,-29.9092,-29.0519,-30.522,-31.5629,-31.6317,
6.775,-28.8647,-28.7546,-28.6787,-30.4863,-29.5504,-27.722,-27.6256,-27.7997,-28.5028,-27.3898,-25.1747,-24.8063,-23.0572,-22.06,-23.1602,-22.8603,-22.8887,-23.2303,-26.7122,-27.5668,-28.0748,-27.8367,-27.7757,-27.441,-27.7536,-29.2022,-29.8228,-28.4544,-28.5166,-30.1266,-29.8881,-32.0333,-30.1027,-28.7809,-30.0392,-31.4467,-31.8619,
6.85,-28.4869,-28.4585,-28.5997,-30.7197,-29.91,-27.9398,-27.6974,-28.5832,-28.876,-27.4502,-25.3899,-25.3382,-25.2839,-22.3047,-23.2795,-22.9721,-23.1174,-24.9101,-26.7754,-27.2651,-26.801,-26.8394,-27.5513,-27.3616,-27.3925,-28.8037,-30.5564,-28.729,-28.6413,-29.8323,-29.7267,-31.9086,-30.4044,-29.0815,-29.4782,-31.1914,-32.1038,
6.925,-28.0368,-27.3928,-29.0962,-31.0557,-29.6538,-27.8853,-27.7097,-28.8028,-29.3556,-27.441,-25.5812,-26.2374,-26.5545,-22.5128,-23.379,-23.1103,-23.7584,-25.515,-26.5223,-26.6842,-26.2861,-26.647,-27.5101,-27.3156,-26.9987,-27.8201,-30.009,-29.1005,-29.1044,-29.6834,-29.4735,-30.9311,-32.019,-30.5399,-29.315,-30.9983,-32.1174,
7,-26.9201,-27.344,-29.8542,-31.1736,-28.8249,-27.6735,-27.955,-29.6033,-29.3835,-27.4329,-25.8036,-28.1006,-26.5471,-22.6788,-23.4754,-23.7197,-24.3199,-25.3302,-26.2923,-26.6131,-26.222,-26.3416,-27.2284,-27.345,-26.9915,-27.2379,-28.671,-30.0005,-29.5852,-29.8813,-28.9704,-30.0412,-32.1579,-31.1133,-29.6145,-30.8732,-31.9276,
