0,-90,-85,-80,-75,-70,-65,-60,-55,-50,-45,-40,-35,-30,-25,-20,-15,-10,-5,0,5,10,15,20,25,30,35,40,45,50,55,60,65,70,75,80,85,90,
4,-27.2248,-27.8484,-27.1056,-26.7998,-26.6602,-26.0953,-25.4674,-24.9345,-24.7665,-25.2302,-25.6466,-25.9864,-26.5032,-26.9718,-27.9476,-30.1874,-30.9779,-31.8474,-31.5147,-30.984,-29.92,-28.0806,-26.6413,-25.4446,-24.6274,-24.2218,-24.059,-24.3062,-24.9901,-25.6102,-26.1161,-26.1264,-26.8428,-27.3468,-27.8477,-28.9093,-29.2829,
4.04,-27.2592,-27.8211,-27.1554,-26.849,-26.6752,-26.1093,-25.4703,-24.9585,-24.8012,-25.5687,-25.8202,-25.9642,-26.3187,-26.9046,-27.3516,-29.1611,-29.883,-31.5968,-31.5898,-31.1244,-29.8985,-28.2093,-26.8029,-25.7196,-24.8298,-24.3147,-24.1123,-24.3282,-24.977,-25.5401,-25.7689,-26.1159,-26.8502,-27.3712,-27.8971,-28.3637,-28.3028,
4.08,-27.2785,-27.8084,-27.2392,-26.8865,-26.6454,-26.0994,-25.49,-24.9963,-24.8478,-25.7641,-25.8479,-25.9119,-26.1733,-26.8114,-27.1756,-27.9438,-29.4258,-30.9691,-31.6295,-31.2488,-29.9537,-28.1208,-26.7866,-25.7986,-24.931,-24.3846,-24.1484,-24.3304,-24.9631,-25.4757,-25.4484,-26.0924,-26.8423,-27.3916,-27.9381,-28.2644,-28.2093,
4.12,-27.3019,-27.8151,-27.7762,-26.9251,-26.6356,-26.1173,-25.5267,-25.033,-24.8961,-25.7651,-25.7061,-25.7988,-25.9679,-26.6857,-26.7778,-27.4063,-28.4918,-29.9765,-31.9973,-31.3671,-29.9849,-28.0467,-26.7467,-25.8413,-25.0075,-25.094,-24.1661,-24.3195,-24.926,-25.3945,-25.1187,-26.0549,-26.5641,-27.4053,-27.9771,-28.4549,-27.9902,
4.16,-27.3478,-27.8417,-27.8524,-26.9648,-26.6788,-26.1624,-25.5785,-26.0381,-26.1027,-25.9173,-25.6828,-25.7417,-25.8735,-26.4527,-26.513,-27.409,-28.457,-29.9228,-32.031,-31.4699,-30.6048,-28.0961,-26.7997,-25.9081,-25.6327,-25.3472,-24.195,-24.3223,-24.9088,-25.3458,-25.0939,-25.8938,-26.3223,-27.4152,-28.0283,-28.6327,-28.0556,
4.2,-27.3934,-28.0207,-27.8244,-27.0046,-26.7267,-26.2099,-25.6267,-26.2083,-26.1558,-26.0098,-25.6721,-25.4278,-25.7576,-25.9308,-26.4504,-27.1545,-28.4711,-29.8392,-31.8935,-32.6072,-30.4564,-28.1058,-26.7757,-25.9187,-25.9068,-25.4343,-24.2544,-24.3397,-24.904,-25.3276,-25.1586,-25.5997,-26.2564,-27.4045,-28.0624,-28.7961,-28.2552,
4.24,-27.4284,-28.1602,-27.8342,-27.0421,-26.752,-26.2336,-26.4131,-26.2239,-26.1337,-25.9026,-25.6469,-25.3846,-25.3872,-25.7541,-26.3044,-26.9161,-27.942,-29.4529,-31.6941,-32.2139,-30.3228,-28.0343,-26.692,-25.8763,-25.5971,-25.3309,-24.5237,-24.3448,-24.909,-25.5564,-25.2734,-25.6468,-26.2493,-27.384,-28.081,-29.3445,-28.5584,
4.28,-28.6005,-28.3726,-27.9131,-27.0845,-26.7933,-26.2815,-26.668,-26.7327,-26.66,-25.9669,-25.6596,-25.4311,-25.4845,-25.772,-26.2191,-26.9491,-27.8413,-29.3859,-31.5187,-31.9642,-30.1732,-28.0246,-26.6665,-25.8597,-25.5255,-25.3688,-24.8969,-24.3752,-24.9286,-25.8338,-25.4405,-25.851,-26.5174,-27.1113,-28.1054,-29.5875,-29.6579,
4.32,-28.8443,-28.7085,-27.9808,-27.114,-26.8246,-26.329,-26.7893,-26.9324,-26.6435,-25.9759,-25.6546,-25.4503,-25.5412,-25.8239,-26.2439,-26.793,-27.7188,-29.0227,-31.233,-30.9495,-30.1073,-27.9963,-26.6194,-25.6253,-25.4519,-25.2519,-24.9392,-24.3987,-24.9426,-25.7602,-25.5697,-26.004,-26.5691,-27.2177,-28.1116,-29.559,-29.6278,
4.36,-28.8759,-28.774,-27.9842,-27.1313,-26.8549,-26.3914,-27.4325,-26.9583,-26.5193,-25.9541,-25.6544,-25.5048,-25.6489,-25.8775,-26.2466,-26.5572,-27.0793,-27.94,-29.9338,-30.4371,-30.0218,-27.9595,-26.5661,-25.4791,-25.3553,-24.7726,-24.8209,-24.4017,-24.9359,-25.6717,-25.6337,-26.0768,-26.5316,-27.1033,-28.0923,-29.3571,-29.6134,
4.4,-28.9498,-28.7496,-27.9916,-27.1575,-26.9085,-26.9795,-27.6707,-27.2635,-26.5692,-25.9989,-25.7088,-25.6265,-25.7744,-25.9347,-26.2272,-26.3928,-26.7608,-27.7103,-28.6798,-30.1052,-29.3199,-27.9319,-26.5337,-25.4488,-25.3088,-24.772,-24.746,-24.4012,-24.9179,-25.5684,-25.688,-26.215,-26.5801,-27.0753,-27.9579,-29.1865,-29.267,
4.44,-29.0056,-28.7254,-28.0056,-27.1783,-27.0714,-27.8699,-27.6895,-27.3124,-26.6033,-26.0601,-25.7725,-26.0499,-25.8445,-25.9419,-26.1391,-26.0661,-26.5307,-27.3827,-28.2171,-29.1223,-29.1291,-27.8989,-26.496,-25.3485,-25.2233,-24.7145,-24.6688,-24.3887,-24.8857,-25.4105,-25.7277,-26.5224,-26.6311,-27.066,-27.4581,-29.056,-29.3232,
4.48,-29.0852,-28.7138,-28.0033,-27.199,-27.8697,-28.0132,-27.5218,-27.1476,-26.6023,-26.0925,-25.8167,-26.2393,-26.0367,-25.9112,-25.8797,-25.4349,-25.7311,-26.1031,-27.6354,-28.5873,-29.0607,-27.8566,-26.4372,-25.1936,-24.5962,-24.5436,-24.5501,-24.3652,-24.8422,-25.24,-25.4405,-26.4347,-26.6574,-27.0686,-27.4304,-28.6118,-29.2392,
4.52,-29.0837,-28.6191,-27.9537,-27.2174,-27.9008,-27.9412,-27.3634,-26.9666,-26.5454,-26.1121,-25.9711,-26.2467,-25.9535,-25.7509,-25.2232,-25.3254,-25.408,-26.0817,-27.2222,-28.3968,-28.4214,-27.784,-25.8801,-25.0616,-24.1664,-24.4053,-24.4369,-23.8943,-24.7958,-25.0971,-25.3092,-26.3498,-26.6917,-27.1042,-27.4955,-28.3688,-29.2069,
4.56,-28.9524,-27.9287,-27.909,-27.2336,-27.906,-27.7091,-27.0887,-26.7736,-26.4714,-26.1173,-26.1613,-26.1658,-25.7638,-24.9929,-25.0715,-25.2196,-25.4397,-26.1297,-27.1683,-27.8587,-27.9462,-27.6803,-25.294,-24.9435,-24.064,-23.9497,-24.3482,-23.6822,-24.5975,-24.9561,-25.168,-26.2479,-26.7111,-27.1395,-27.6121,-28.5857,-29.2469,
4.6,-28.7984,-27.4269,-27.4388,-27.2511,-27.8775,-27.4035,-26.619,-26.6144,-26.4193,-26.106,-26.0105,-26.0078,-24.9953,-24.7885,-24.9739,-25.0826,-25.3949,-26.1645,-27.0062,-27.5331,-27.6593,-27.148,-25.0454,-24.8155,-23.9322,-23.5055,-24.2474,-23.5258,-23.5313,-24.8182,-24.6618,-26.1093,-26.7038,-27.1616,-27.711,-28.6223,-29.3269,
4.64,-28.1746,-27.4559,-27.4678,-27.2691,-27.8241,-27.2574,-26.4298,-26.1457,-25.7614,-25.7515,-25.6474,-25.7797,-24.6183,-24.6415,-24.8729,-24.8405,-25.2435,-25.8896,-26.37,-27.2304,-26.6558,-25.7287,-24.9287,-24.1166,-23.8293,-23.4781,-24.1692,-23.4549,-23.461,-24.6754,-24.2697,-25.9721,-26.6643,-27.141,-27.6768,-28.534,-29.3631,
4.68,-27.9614,-27.4726,-27.4419,-27.2894,-27.843,-27.116,-26.3628,-25.6899,-25.3661,-25.1148,-24.6876,-25.5576,-24.5968,-24.5127,-24.6106,-24.5937,-24.9773,-25.6158,-26.036,-26.3914,-25.986,-25.4518,-24.794,-23.7499,-23.749,-23.4132,-23.3594,-23.4598,-23.4492,-24.1119,-24.1097,-25.0797,-26.6097,-27.1236,-27.3738,-28.4262,-29.3284,
4.72,-27.8544,-27.3796,-27.4687,-27.3183,-27.8871,-27.0368,-25.8178,-25.4206,-25.183,-24.9267,-24.7722,-25.3715,-24.5247,-24.4215,-23.7887,-24.3617,-24.7423,-25.3283,-25.7838,-25.6661,-25.7595,-25.263,-24.3174,-23.6927,-23.2745,-23.4072,-23.5306,-23.5292,-23.479,-23.5595,-24.0365,-24.7368,-26.3132,-27.0872,-27.3196,-28.2121,-29.2425,
4.76,-27.4512,-27.2642,-27.5393,-27.3504,-27.8674,-26.7434,-25.3064,-25.2618,-25.1318,-24.9159,-24.7204,-24.1017,-24.3679,-23.7084,-23.6347,-24.1829,-24.5178,-24.4561,-24.651,-25.3162,-24.8584,-24.8337,-24.0963,-23.6512,-23.2232,-23.3678,-23.4741,-23.5591,-23.5217,-23.6677,-24.0386,-24.7868,-25.5446,-26.3875,-27.2292,-27.9528,-28.833,
4.8,-27.234,-27.3143,-27.674,-27.3855,-27.7808,-25.6959,-25.1232,-25.0552,-24.993,-24.7654,-24.5293,-23.6893,-24.1023,-23.1709,-23.4205,-23.9202,-23.3785,-23.8903,-24.1171,-24.9173,-24.2609,-23.9808,-23.8927,-23.5378,-23.1469,-23.0036,-23.3935,-23.2739,-23.5296,-23.6893,-24.0578,-24.8288,-25.6062,-26.3606,-26.783,-27.8685,-28.6265,
4.84,-27.3667,-27.4895,-28.6706,-27.9318,-27.6671,-25.5663,-25.0395,-24.7619,-24.4682,-24.2234,-24.3313,-23.5252,-23.1983,-22.9928,-23.2051,-22.6677,-22.6509,-23.571,-23.8615,-24.6461,-24.0589,-23.7591,-23.6555,-23.4008,-23.0527,-22.8944,-23.3043,-23.2344,-23.3879,-23.6998,-24.0727,-24.8742,-25.7209,-26.5202,-26.9738,-27.7782,-28.539,
4.88,-27.5248,-27.6099,-28.4846,-27.6798,-27.4899,-25.3929,-24.9187,-24.429,-24.1019,-23.4454,-23.5065,-23.2986,-22.7709,-22.7587,-22.9595,-22.2458,-22.4485,-23.2577,-23.6037,-23.1979,-23.7862,-23.5106,-23.3578,-22.3236,-22.8667,-22.6822,-22.7999,-23.1302,-23.3021,-23.6469,-23.8944,-24.6742,-25.706,-26.6266,-27.1373,-27.718,-28.2009,
4.92,-27.5518,-27.6701,-28.2788,-27.4678,-27.2846,-24.8687,-23.9853,-24.0708,-23.8038,-23.2618,-22.7537,-23.0332,-22.4636,-22.5045,-22.151,-22.0007,-22.2448,-22.9403,-23.2172,-22.6768,-23.4172,-23.1878,-22.7967,-22.0928,-22.3893,-22.4534,-22.1707,-22.9459,-23.097,-23.5407,-23.6634,-23.9866,-25.5447,-26.6161,-27.2747,-27.7687,-28.3714,
4.96,-27.5128,-27.7209,-28.1558,-26.4289,-24.8094,-23.976,-23.503,-23.8792,-23.6305,-23.1014,-22.4965,-22.2895,-22.1516,-22.2153,-21.2836,-21.7483,-21.9749,-21.5914,-22.3255,-22.2481,-23.0169,-22.8323,-21.6364,-21.924,-21.7316,-22.291,-22.0764,-22.2431,-22.8994,-23.4343,-23.5368,-23.925,-25.3819,-26.466,-27.2521,-27.841,-28.5699,
5,-27.4224,-27.5257,-27.8825,-25.611,-24.203,-23.5665,-23.2655,-23.6891,-23.3862,-22.7694,-22.0318,-20.666,-21.7314,-20.5214,-20.7926,-21.3376,-21.5327,-20.229,-20.3967,-21.7345,-20.8884,-21.1299,-21.1073,-21.5281,-21.2796,-21.7755,-21.8512,-21.571,-22.6818,-23.2634,-23.3661,-23.7403,-25.2131,-25.3288,-27.03,-27.7685,-28.5549,
5.04,-27.3054,-27.1744,-27.4606,-25.049,-23.836,-23.3103,-23.1663,-22.7993,-22.3833,-22.3879,-21.5937,-20.3489,-20.5821,-19.9576,-20.3868,-20.5075,-19.3052,-19.8242,-19.9516,-21.2267,-20.2695,-20.1814,-20.7271,-21.1936,-20.9662,-20.755,-21.6452,-21.4802,-21.7139,-23.0921,-22.9464,-23.5316,-24.2442,-25.0221,-26.0696,-27.6214,-28.4009,
5.08,-27.156,-25.9043,-24.9139,-24.5661,-23.5456,-23.1757,-23.0791,-22.2026,-21.2343,-20.5821,-21.2049,-20.0853,-19.538,-19.6958,-20.0634,-19.0168,-19.0502,-19.5021,-19.6154,-20.0262,-19.9226,-19.8987,-20.4457,-20.3812,-20.7261,-20.5935,-21.4314,-21.3613,-21.5259,-22.931,-22.103,-23.296,-23.4963,-24.8734,-25.9121,-27.233,-28.1683,
5.12,-26.2849,-25.2603,-24.0114,-24.1813,-23.345,-23.0405,-22.8648,-21.6951,-20.7519,-19.7839,-19.3688,-19.7554,-19.1549,-19.3713,-19.7351,-18.7543,-18.7936,-19.2038,-19.274,-18.5606,-19.534,-19.5271,-20.0834,-19.1992,-20.4225,-20.3022,-20.2793,-21.1171,-21.2522,-22.1627,-21.9018,-22.4855,-23.1775,-24.5863,-25.7176,-26.3398,-27.3688,
5.16,-24.9964,-24.8935,-23.8871,-23.2039,-22.913,-22.26,-21.4042,-21.2954,-20.4184,-19.5214,-18.8351,-19.4398,-18.8498,-19.1048,-18.4529,-18.5914,-18.6105,-18.9693,-19.0108,-18.377,-19.2132,-19.1845,-18.5894,-18.793,-18.9469,-20.0157,-19.7716,-20.893,-21.044,-21.1268,-21.805,-21.9427,-23.0014,-24.3069,-25.0544,-26.16,-27.1057,
5.2,-24.7958,-24.7055,-23.8326,-23.1175,-22.5507,-21.8111,-21.1282,-20.9472,-20.1118,-19.2466,-18.5881,-18.3819,-18.6288,-18.6782,-18.1871,-18.4713,-18.4925,-18.1468,-18.3593,-18.2738,-18.6946,-18.8707,-17.7183,-18.4186,-18.2304,-19.6884,-19.5603,-19.9549,-20.8886,-21.0478,-21.7659,-22.045,-22.9627,-24.125,-24.7851,-25.9602,-27.0414,
5.24,-24.7934,-24.6008,-23.7783,-23.0223,-22.4075,-21.6775,-20.924,-20.5289,-19.826,-19.0279,-18.4238,-17.9113,-18.4845,-17.998,-18.1604,-18.4164,-18.4734,-18.1466,-18.1355,-18.2307,-17.8551,-17.5256,-17.5214,-18.1094,-17.9716,-18.6669,-19.367,-19.6875,-20.6527,-21.006,-21.7543,-22.1462,-23.0296,-24.2665,-24.9665,-25.8275,-26.8881,
5.28,-24.9229,-24.4755,-23.7451,-23.0048,-22.4424,-21.7003,-20.8323,-19.595,-19.0886,-18.947,-18.4023,-18.0336,-18.2782,-18.1305,-18.2358,-18.7817,-18.6425,-18.3334,-18.3112,-18.2552,-17.9827,-17.6162,-17.4671,-17.9421,-17.8727,-18.2027,-19.2542,-19.6446,-20.3395,-21.0461,-22.1524,-22.3178,-23.8463,-24.6507,-25.3256,-26.1688,-27.0462,
5.32,-26.0393,-24.6867,-24.1094,-23.1156,-22.582,-21.7609,-20.8156,-19.7651,-19.2842,-19.2984,-18.7965,-18.2305,-18.5304,-18.3581,-18.4169,-19.1841,-18.9326,-18.5579,-18.508,-18.9381,-18.1938,-17.8391,-17.5576,-18.0564,-17.9054,-18.3425,-19.2881,-19.6725,-20.4389,-21.1149,-22.435,-22.5239,-24.1774,-24.903,-25.6578,-26.6168,-27.6614,
5.36,-26.4737,-24.9205,-24.5413,-23.9385,-22.7538,-21.8711,-21.2072,-20.0657,-19.714,-19.801,-19.9315,-18.5066,-18.9083,-18.6629,-19.0971,-19.5608,-19.2772,-18.8217,-18.7579,-19.4217,-18.496,-18.1716,-17.768,-18.4657,-18.2259,-18.5955,-19.8682,-19.8175,-20.6454,-21.9128,-22.649,-22.7391,-24.5156,-25.1714,-25.9105,-28.7083,-28.7005,
5.4,-26.6104,-25.1194,-24.8562,-24.938,-23.9314,-22.7852,-21.9502,-20.403,-20.1131,-20.2015,-20.34,-18.8065,-19.2917,-18.9773,-20.6999,-19.903,-19.6054,-19.6478,-19.043,-19.8541,-18.8183,-18.5196,-19.9256,-18.9036,-19.7583,-18.8892,-20.2064,-20.3323,-20.8935,-22.3669,-22.8219,-22.908,-24.753,-26.4781,-26.1104,-28.7616,-29.7228,
5.44,-27.0117,-26.1331,-25.0673,-24.9854,-24.0227,-23.1565,-22.3328,-20.7424,-20.4863,-20.5847,-20.7494,-19.119,-19.6507,-20.8117,-21.0778,-20.2228,-19.9395,-21.6945,-21.7693,-20.2904,-19.1537,-18.8686,-20.4231,-19.3163,-20.2405,-19.2067,-20.5807,-21.6489,-21.1423,-22.6669,-23.0275,-23.061,-24.95,-26.9001,-27.1949,-28.8141,-29.7747,
5.48,-27.1476,-26.3714,-26.181,-25.1718,-24.2882,-23.4717,-22.6641,-22.4431,-21.6025,-20.9567,-21.1107,-19.4082,-20.4592,-21.908,-21.4064,-20.5382,-22.4252,-22.2745,-22.3042,-20.7001,-19.4796,-19.2175,-20.9215,-19.6965,-20.6082,-19.5135,-20.9349,-22.0636,-22.5363,-22.8992,-23.285,-23.2364,-25.4874,-27.0007,-28.1719,-28.9939,-29.8046,
5.52,-27.1711,-26.6174,-26.7408,-25.4232,-24.5091,-23.7377,-22.9502,-24.0558,-24.1189,-22.4286,-21.4055,-19.6659,-22.2941,-22.1285,-21.7132,-23.5921,-23.6353,-22.8237,-22.8803,-21.9107,-19.7924,-19.5406,-21.3301,-20.3099,-20.9108,-19.7945,-21.2375,-22.3949,-23.3863,-23.1196,-25.1755,-23.407,-26.5399,-27.7345,-28.3839,-29.2373,-29.9364,
5.56,-27.5995,-27.8214,-27.0597,-26.2413,-24.8693,-23.941,-23.2122,-24.2454,-24.1782,-23.5273,-22.2566,-19.8821,-22.4601,-22.3662,-22.0176,-23.9441,-24.0976,-23.3251,-23.4255,-24.7822,-20.0784,-19.8253,-21.6374,-22.5957,-21.1752,-20.0378,-22.233,-22.6248,-23.5343,-23.585,-25.207,-24.3495,-26.8129,-28.1338,-28.8875,-29.4639,-30.1046,
5.6,-28.1133,-28.2091,-27.425,-26.2378,-25.3461,-24.5422,-24.7584,-24.4068,-24.133,-23.5022,-22.812,-20.0763,-22.6392,-22.5989,-23.8068,-24.2694,-24.4939,-26.2895,-23.7871,-24.8565,-20.3265,-20.0707,-22.352,-22.7145,-22.0905,-20.2599,-23.133,-22.7472,-23.5896,-24.5349,-25.292,-25.964,-26.994,-28.2791,-29.6321,-30.0692,-30.3138,
5.64,-28.3288,-28.2664,-27.3475,-26.2599,-25.5107,-25.3552,-25.1,-24.5118,-24.1395,-23.5819,-23.0341,-22.2868,-22.8455,-22.8583,-25.0451,-24.6457,-24.8273,-26.6258,-24.8428,-24.8521,-20.9606,-20.2875,-23.2719,-22.7631,-22.9023,-20.4688,-23.4162,-23.6694,-23.6509,-24.5109,-25.6377,-26.1655,-27.4144,-28.5265,-29.6892,-30.0957,-30.9257,
5.68,-28.6368,-28.1614,-27.289,-26.0704,-25.4699,-25.2302,-25.1048,-24.5633,-24.1674,-23.6416,-23.1927,-23.594,-23.0761,-24.7515,-25.3145,-26.5043,-27.027,-26.9124,-26.2904,-24.8662,-24.0069,-23.7025,-23.4193,-22.8725,-23.0438,-22.5463,-23.6679,-24.3038,-23.7324,-24.5248,-25.6474,-26.2814,-27.4674,-28.6292,-29.6975,-30.1285,-30.6903,
5.72,-28.7014,-27.7754,-27.1052,-25.862,-25.2662,-25.1364,-25.0654,-24.7597,-24.1968,-23.6755,-23.2909,-23.8214,-24.3491,-24.996,-25.5162,-27.3365,-28.0085,-28.0678,-26.5977,-25.0755,-24.1785,-23.7852,-23.4934,-22.9739,-23.0868,-23.6985,-23.8206,-24.4662,-24.5236,-24.5613,-25.6178,-26.2764,-27.2761,-28.432,-29.4751,-30.2352,-30.5535,
5.76,-28.5475,-27.581,-26.9605,-25.7683,-25.2712,-25.1839,-25.1179,-24.8476,-24.1955,-23.9771,-23.4325,-24.0846,-25.2561,-25.4311,-26.1203,-27.7799,-28.4558,-28.6086,-27.1881,-26.624,-24.51,-23.9979,-23.6078,-23.4935,-23.1405,-23.6982,-23.9444,-24.6256,-24.7667,-24.6412,-25.6827,-26.382,-27.1757,-28.2075,-29.3271,-30.3057,-30.5582,
5.8,-28.4044,-27.2806,-26.8424,-25.77,-25.4262,-25.2995,-25.144,-24.8177,-24.245,-24.1759,-24.6348,-24.3303,-25.4644,-25.9265,-28.1279,-28.9486,-30.1582,-29.0692,-29.5748,-27.2166,-24.8478,-24.2246,-23.7301,-23.7878,-23.1727,-23.6542,-24.2757,-24.754,-24.9558,-25.0428,-25.7219,-26.4596,-27.1283,-28.0418,-29.0792,-30.1688,-30.54,
5.84,-28.2749,-27.0418,-26.4123,-25.8864,-25.5687,-25.7611,-25.0029,-24.7653,-24.2031,-24.2128,-24.6364,-24.4868,-25.6282,-26.9867,-28.2015,-29.7632,-30.999,-30.8133,-30.0058,-27.6504,-25.9024,-24.3898,-24.3014,-23.8069,-23.5023,-23.586,-24.129,-24.789,-25.1087,-25.2849,-25.7323,-26.458,-27.0794,-27.9033,-28.4829,-30.0479,-30.4738,
5.88,-28.2145,-27.0712,-26.4198,-26.0456,-25.7058,-25.8224,-25.1409,-24.7598,-24.2845,-24.2847,-24.6666,-25.4818,-26.1208,-27.0807,-28.3345,-29.9755,-31.0563,-31.3732,-30.3735,-29.7129,-27.628,-25.6924,-24.621,-23.9057,-23.729,-23.593,-24.068,-24.9772,-25.2111,-25.3871,-25.7849,-26.483,-27.0784,-27.7682,-28.6297,-30.082,-30.5008,
5.92,-28.1862,-26.9407,-26.5224,-26.4708,-25.855,-25.8359,-25.212,-24.7644,-24.3488,-24.3434,-24.747,-25.4225,-26.3922,-27.2076,-28.4582,-30.1965,-31.7827,-31.7079,-31.373,-30.0087,-27.8747,-26.3956,-24.8077,-24.0204,-23.7878,-23.7128,-24.1089,-24.9844,-25.4779,-25.4661,-25.8606,-26.5717,-27.1025,-27.6667,-28.6188,-30.0569,-30.5426,
5.96,-28.1083,-26.8621,-26.5647,-26.7404,-25.9296,-25.8092,-25.1905,-24.7299,-24.3545,-24.3811,-24.8105,-25.4003,-26.3895,-27.3662,-28.6149,-30.3829,-31.944,-31.6931,-31.5957,-30.0797,-28.0482,-26.3547,-24.8907,-24.0506,-23.7884,-23.6891,-24.0821,-24.8969,-25.5646,-25.5262,-25.8914,-26.6272,-27.1398,-27.5896,-28.2948,-29.9448,-30.5684,
6,-28.0411,-26.9636,-26.6069,-26.7297,-26.2964,-25.7494,-25.1129,-24.6929,-24.3773,-24.7008,-25.1039,-25.4592,-26.5247,-27.4686,-28.7917,-30.5527,-31.886,-31.3863,-31.29,-30.304,-28.4618,-27.0571,-25.045,-24.4972,-23.829,-23.7408,-24.0688,-24.7774,-25.3531,-25.6428,-25.9133,-26.6512,-27.1668,-27.5872,-28.1606,-29.8078,-30.4919,
