0,-90,-85,-80,-75,-70,-65,-60,-55,-50,-45,-40,-35,-30,-25,-20,-15,-10,-5,0,5,10,15,20,25,30,35,40,45,50,55,60,65,70,75,80,85,90,
4,-31.9778,-32.0171,-32.3111,-31.7263,-31.8658,-32.2491,-32.5967,-32.0606,-32.0879,-32.5061,-32.0397,-32.059,-32.3152,-32.3355,-32.4682,-32.4973,-32.4637,-31.7669,-32.2604,-32.2107,-32.1952,-32.2135,-32.0845,-32.202,-32.2443,-32.1537,-32.0931,-32.302,-32.046,-32.1523,-32.0041,-32.0795,-32.2416,-32.2382,-32.2871,-32.0582,-32.1163,
4.04,-31.982,-32.1746,-32.2398,-31.8595,-31.9342,-32.2675,-32.4292,-32.235,-32.1081,-32.5189,-31.98,-32.1563,-32.3284,-32.395,-32.4861,-32.6226,-32.4683,-32.0201,-32.3144,-32.2168,-32.1754,-32.2311,-32.1583,-32.2057,-32.2537,-32.1698,-32.1031,-32.4577,-32.0539,-32.1647,-32.0245,-32.0984,-32.2024,-32.2477,-32.2521,-32.1062,-32.1182,
4.08,-32.0076,-32.1275,-32.2289,-31.9072,-31.95,-32.257,-32.4356,-32.3972,-32.1086,-32.5144,-32.0174,-32.2029,-32.3513,-32.4392,-32.4768,-32.3875,-32.4687,-32.1291,-32.359,-32.2237,-32.1617,-32.2481,-32.2345,-32.2022,-32.2645,-32.1664,-32.1208,-32.4382,-32.0541,-32.1831,-32.0542,-31.8236,-32.2111,-32.2632,-32.248,-32.1519,-32.1379,
4.12,-32.0166,-32.1001,-32.2466,-31.9501,-31.9967,-32.1589,-32.4769,-32.4547,-32.1205,-32.4626,-32.064,-32.2235,-32.3617,-32.4033,-32.4986,-32.4322,-32.4674,-32.4273,-32.3794,-32.2273,-32.1543,-32.2751,-32.5916,-32.1954,-32.2244,-32.1941,-32.1443,-32.8027,-32.082,-32.3366,-32.0346,-31.822,-32.1723,-32.2659,-32.237,-32.227,-32.2051,
4.16,-32.0176,-32.0215,-32.3006,-32.0238,-31.9691,-32.3276,-32.4461,-32.4195,-32.1168,-32.4366,-32.1287,-32.2396,-32.3817,-32.3721,-32.4604,-32.3604,-32.4541,-32.5253,-32.3866,-32.2309,-32.1599,-32.2829,-32.4817,-32.1849,-32.2289,-32.2253,-32.1567,-32.7182,-32.0723,-32.5543,-32.0107,-31.8917,-32.1709,-32.2627,-32.2503,-32.2225,-32.2039,
4.2,-32.0223,-32.0734,-32.2679,-32.0709,-31.9768,-32.4238,-32.4579,-32.3895,-32.1332,-32.4327,-32.2005,-32.2443,-32.4119,-32.3612,-32.4616,-32.4367,-32.4616,-32.5811,-32.3638,-32.2363,-32.1795,-32.2862,-32.3336,-32.1871,-32.2536,-32.2375,-32.1578,-32.7305,-32.0701,-32.6123,-32.0244,-31.9161,-32.1767,-32.2631,-32.2694,-32.2277,-32.2466,
4.24,-32.0301,-32.1036,-32.2186,-32.0871,-32.007,-32.3433,-32.543,-32.4931,-32.1436,-32.4556,-32.1776,-32.2322,-32.3965,-32.022,-32.4524,-32.3214,-32.4454,-32.1864,-32.3383,-32.2393,-32.1831,-32.2769,-32.2003,-32.1964,-32.2598,-32.236,-32.1556,-32.6792,-32.0771,-32.6251,-32.0468,-32.2434,-32.1828,-32.262,-32.2666,-32.2525,-32.2589,
4.28,-32.0527,-32.1294,-32.0212,-32.0755,-32.0576,-32.2565,-32.4967,-32.4968,-32.1616,-32.4424,-32.1645,-32.2544,-32.3841,-32.2811,-32.4438,-32.3379,-32.4265,-32.4283,-32.3666,-32.2425,-32.1801,-32.2791,-32.1449,-32.2029,-32.2728,-32.2472,-32.1578,-32.5814,-32.1004,-32.4877,-32.0576,-32.0738,-32.156,-32.2659,-32.2785,-32.2669,-32.3062,
4.32,-31.9678,-32.3052,-32.0055,-32.0965,-32.0815,-32.1968,-32.4878,-32.5015,-32.1623,-32.3511,-32.1398,-32.2577,-32.3823,-32.169,-32.4349,-32.3864,-32.4131,-32.4951,-32.3718,-32.2344,-32.1883,-32.2832,-32.118,-32.1984,-32.2551,-32.27,-32.1625,-32.5762,-32.1166,-32.4362,-32.058,-32.0433,-32.1286,-32.2585,-32.2928,-32.2817,-32.3172,
4.36,-31.8735,-32.0728,-31.9742,-32.084,-32.0879,-32.2546,-32.5138,-32.4819,-32.1606,-32.1713,-32.1493,-32.2483,-32.3639,-32.1436,-32.4378,-32.4551,-32.4134,-32.4094,-32.3423,-32.233,-32.1981,-32.2867,-32.0892,-32.1934,-32.2321,-32.2658,-32.1658,-32.5682,-32.1293,-32.4954,-32.7213,-32.0951,-32.1339,-32.2498,-32.289,-32.2836,-32.3115,
4.4,-31.7961,-32.1232,-31.9474,-32.0671,-32.0864,-32.2994,-32.5311,-32.5186,-32.1918,-32.2087,-32.1446,-32.2589,-32.3437,-32.1513,-32.4403,-32.4506,-32.4031,-32.3563,-32.3564,-32.2373,-32.1946,-32.2899,-32.0737,-32.1819,-31.9197,-32.2799,-32.1796,-32.5566,-32.1399,-32.273,-32.6533,-32.1075,-32.141,-32.2474,-32.2826,-32.298,-32.3171,
4.44,-32.1707,-32.217,-31.9763,-32.0791,-32.1229,-32.2934,-32.5366,-32.4666,-32.1972,-32.3607,-32.1384,-32.2789,-32.3589,-32.1183,-32.4346,-32.3893,-32.4042,-32.3568,-32.3588,-32.239,-32.1988,-32.2878,-32.0801,-32.2581,-31.7677,-32.2807,-32.2034,-32.5399,-32.1312,-32.2314,-32.4686,-32.1133,-32.1422,-32.2393,-32.2742,-32.3084,-32.3176,
4.48,-32.5156,-32.2223,-32.0015,-32.1118,-32.1276,-32.2259,-32.4847,-32.4457,-32.1924,-32.3308,-32.158,-32.2775,-32.357,-32.0973,-32.4288,-32.4003,-32.3983,-32.45,-32.3723,-32.2492,-32.1927,-32.3028,-32.1,-32.118,-31.9612,-32.2517,-32.2245,-32.5501,-32.1299,-32.0262,-32.2714,-32.1046,-32.1396,-32.2304,-32.2677,-32.3243,-32.328,
4.52,-32.4902,-32.2266,-32.0133,-32.1153,-32.1399,-32.2228,-32.4594,-32.4262,-32.1801,-32.3467,-32.1744,-32.2801,-32.3564,-32.1147,-32.427,-32.3564,-32.3942,-32.5211,-32.3925,-32.2631,-32.1844,-32.3068,-32.1875,-32.0794,-32.1197,-32.2597,-32.2373,-32.5061,-32.1375,-31.8857,-32.1328,-32.1148,-32.1461,-32.2311,-32.2652,-32.3024,-32.323,
4.56,-32.1987,-32.2003,-31.9772,-32.1172,-32.1634,-32.2363,-32.388,-32.4082,-32.1726,-32.4011,-32.1992,-32.2824,-32.3532,-32.1376,-32.4023,-32.3003,-32.3895,-32.534,-32.3859,-32.2743,-32.1759,-32.3059,-32.2057,-32.1309,-32.2033,-32.2665,-32.2409,-32.4798,-32.1335,-31.8271,-32.0286,-32.079,-32.1309,-32.2308,-32.2818,-32.277,-32.3242,
4.6,-31.7973,-32.1914,-32.0544,-32.1409,-32.1542,-32.2119,-32.2476,-32.3935,-32.8355,-32.3636,-32.2112,-32.2806,-32.3432,-32.3958,-32.3926,-32.2075,-32.3914,-32.5205,-32.358,-32.2685,-32.1707,-32.3039,-32.2118,-32.1113,-32.2394,-32.2724,-32.2424,-32.3933,-32.1265,-31.7919,-31.7667,-32.0315,-32.1267,-32.2264,-32.276,-32.2879,-32.336,
4.64,-32.0231,-32.1925,-32.0859,-32.1437,-32.14,-32.2101,-32.2469,-32.3783,-32.6455,-32.3507,-32.2345,-32.2856,-32.3129,-32.1757,-32.3928,-32.2075,-32.38,-32.52,-32.3539,-32.2537,-32.1579,-32.3017,-32.2515,-32.1043,-32.2633,-32.2787,-32.2496,-32.0779,-32.1355,-31.9931,-31.4476,-31.9557,-32.1079,-32.2227,-32.274,-32.296,-32.3619,
4.68,-32.0631,-32.1836,-32.0387,-32.1184,-32.1125,-32.1919,-32.2915,-32.387,-32.7428,-32.3599,-32.2397,-32.288,-32.2823,-32.0875,-32.3658,-31.8633,-32.368,-32.5228,-32.358,-32.1242,-32.1632,-32.3098,-32.1959,-32.1612,-32.2607,-32.259,-32.2635,-32.1091,-32.1444,-32.1612,-31.4813,-31.9504,-32.0695,-32.2095,-32.2617,-32.3058,-32.3612,
4.72,-31.9094,-32.1695,-32.0473,-32.1117,-32.0401,-32.1891,-32.2709,-32.3773,-32.5575,-32.3465,-32.2308,-32.254,-31.3898,-31.3937,-32.331,-31.7584,-32.357,-32.4986,-32.357,-31.9599,-32.1702,-32.3194,-32.4051,-32.1595,-32.2538,-32.3233,-32.2762,-32.165,-32.1506,-32.1518,-31.7063,-31.5764,-32.0543,-32.1999,-32.2382,-32.3057,-32.3637,
4.76,-31.8916,-32.1575,-31.7179,-31.7277,-31.6925,-32.185,-32.2901,-32.3754,-32.2444,-32.3772,-32.2319,-32.2013,-31.3079,-31.0937,-32.2888,-31.634,-32.3445,-32.5207,-32.351,-32.0096,-32.1662,-32.1927,-32.3086,-32.1505,-32.121,-32.1058,-32.278,-32.1333,-32.16,-31.9308,-31.7188,-31.6726,-32.0235,-32.1882,-32.412,-32.2906,-32.3715,
4.8,-31.835,-32.1482,-31.1039,-31.4459,-31.5939,-32.1759,-32.2803,-32.3926,-32.2817,-32.3724,-32.2108,-32.1433,-31.1674,-30.9509,-32.2239,-31.4893,-32.3244,-32.5277,-32.335,-32.0376,-32.1722,-32.446,-32.3245,-32.1542,-32.2253,-32.2766,-32.2735,-32.134,-32.1713,-32.0253,-31.758,-31.7927,-31.9909,-32.1774,-32.2906,-32.3048,-32.3704,
4.84,-31.8327,-32.1239,-31.2172,-31.5221,-31.6755,-32.1656,-32.1962,-32.413,-32.4312,-32.3206,-32.1865,-31.6887,-30.7495,-30.8708,-32.0261,-31.4369,-32.2957,-32.4815,-32.3197,-32.1125,-32.1767,-32.4177,-32.3298,-32.1829,-32.237,-32.3037,-32.2755,-32.1786,-32.1813,-32.1803,-31.7603,-32.1178,-31.9891,-32.1647,-32.1269,-32.3099,-32.3742,
4.88,-31.9075,-32.0915,-31.3826,-31.5909,-31.7361,-32.1478,-32.1917,-32.4081,-32.5288,-32.3099,-31.5094,-31.0066,-30.3961,-30.4554,-30.5577,-31.3445,-32.264,-32.4328,-32.3241,-32.185,-32.175,-32.3485,-32.2948,-32.1495,-32.2576,-32.3069,-32.2785,-32.2013,-32.1903,-32.3234,-31.8227,-32.0829,-31.915,-32.1534,-32.0992,-32.2942,-32.3709,
4.92,-31.893,-32.047,-31.3993,-31.5874,-31.7423,-32.1295,-32.1351,-32.4098,-32.5219,-32.1323,-31.4795,-30.8236,-30.362,-30.1788,-30.4635,-30.929,-32.2325,-32.3901,-32.3274,-32.3213,-32.1729,-32.238,-32.1955,-32.0822,-32.079,-32.3449,-32.2877,-32.2528,-32.205,-32.3187,-31.9188,-32.1622,-31.7626,-32.1382,-32.1394,-32.2828,-32.3663,
4.96,-31.8834,-32.0378,-31.5561,-31.5414,-31.7396,-32.1079,-32.153,-32.4164,-32.4929,-31.815,-31.4182,-30.8637,-30.3404,-30.2283,-30.4058,-30.8472,-31.778,-32.0198,-32.3118,-32.2569,-32.1599,-32.1605,-32.1671,-32.0465,-31.9725,-32.2209,-32.2907,-32.2436,-32.2172,-32.2931,-31.765,-32.0855,-31.7584,-32.1244,-32.1411,-32.2827,-32.3467,
5,-31.903,-32.025,-31.5501,-31.5624,-31.7502,-32.0877,-32.1781,-32.4113,-32.463,-31.8204,-31.5944,-31.0101,-30.6918,-30.3086,-30.4379,-30.76,-31.4932,-31.9979,-32.307,-32.27,-32.1498,-32.2216,-32.1697,-32.062,-32.02,-32.1369,-32.2753,-32.2315,-32.2626,-32.2929,-32.1059,-32.0792,-31.9976,-32.1186,-32.1747,-32.2769,-32.3297,
5.04,-31.9281,-32.0064,-31.5144,-31.6296,-31.7668,-32.0866,-32.1691,-32.4122,-32.3944,-31.9195,-31.721,-31.1877,-30.9458,-30.5681,-30.498,-30.8063,-31.3586,-31.9959,-32.3108,-32.2208,-32.1481,-32.4506,-32.1822,-32.0628,-32.4643,-32.0936,-32.2562,-32.1648,-32.2073,-32.2308,-32.1905,-32.173,-32.1714,-32.4659,-32.1944,-32.2748,-32.3077,
5.08,-31.9856,-32.0249,-31.6226,-31.6757,-31.9867,-32.1023,-32.1738,-32.4156,-32.3918,-32.0616,-31.7801,-31.3116,-30.9696,-30.8462,-30.5533,-30.8068,-31.3655,-31.9796,-32.2985,-32.1964,-32.1437,-32.4972,-32.1724,-32.0875,-32.47,-32.091,-32.2382,-32.1783,-32.1052,-32.2238,-32.248,-32.244,-32.2138,-32.7839,-32.2355,-32.2816,-31.9566,
5.12,-32.0297,-32.0584,-31.7065,-32.0195,-32.4107,-32.1085,-32.1374,-32.4224,-32.3875,-32.035,-31.7419,-31.2553,-30.9374,-30.976,-30.57,-30.8232,-31.3969,-31.931,-32.2928,-32.2966,-32.1477,-32.3648,-32.1569,-32.0973,-32.22,-32.097,-32.2225,-32.4361,-32.2369,-32.2262,-32.4231,-32.2974,-32.2246,-32.4084,-32.2252,-32.2884,-31.7948,
5.16,-32.1147,-31.9403,-31.8427,-32.3116,-32.197,-32.1166,-32.1466,-32.4026,-32.3997,-32.0416,-31.7349,-31.1594,-30.8797,-30.7166,-30.5874,-30.854,-31.4018,-31.9169,-32.2904,-32.3187,-32.1519,-32.2037,-32.07,-32.6798,-31.8184,-32.1116,-32.2233,-32.4028,-32.1865,-32.2187,-32.4538,-32.2925,-32.2138,-32.2489,-32.238,-32.2935,-31.7893,
5.2,-32.3652,-31.711,-32.1294,-32.1585,-32.1203,-31.7342,-32.1558,-32.4001,-32.3939,-32.0438,-31.6707,-30.9941,-30.7848,-30.5397,-30.5833,-30.8746,-31.4073,-31.9326,-32.288,-32.3301,-32.1588,-32.0767,-32.0919,-32.296,-32.1105,-32.123,-32.4234,-32.2566,-32.2041,-32.2156,-32.4957,-32.3076,-32.2502,-32.2601,-32.2461,-32.296,-31.8478,
5.24,-32.445,-31.8096,-32.3212,-32.1904,-32.0763,-31.6602,-32.1592,-32.4059,-32.4149,-32.0128,-31.7073,-30.616,-30.8018,-30.4979,-30.5819,-30.8813,-31.4193,-31.9333,-32.2919,-32.3375,-32.163,-32.1212,-32.1234,-32.0801,-32.2292,-32.1472,-32.8801,-32.3042,-32.1878,-32.2138,-32.4016,-32.2958,-32.2782,-32.2894,-32.2404,-32.3116,-31.879,
5.28,-32.4583,-32.395,-32.121,-32.0744,-32.0011,-31.8432,-32.1606,-32.4029,-32.4071,-31.9947,-31.5246,-30.9799,-30.8164,-30.6212,-30.6332,-30.936,-31.4452,-31.9394,-32.2882,-32.3,-32.169,-32.2893,-32.0851,-32.0308,-32.0939,-32.1274,-32.5797,-32.2164,-32.1672,-32.2002,-32.4225,-32.3119,-32.2983,-32.3065,-32.2381,-32.3188,-31.9437,
5.32,-32.4619,-32.1699,-32.1014,-31.9713,-31.9482,-31.8431,-32.1711,-32.3943,-32.394,-31.9881,-31.6709,-31.2028,-30.8607,-31.0758,-30.953,-30.9976,-31.5084,-32.5782,-32.284,-32.2934,-32.1804,-32.2998,-32.1465,-31.8659,-31.919,-32.0834,-32.2083,-32.2391,-32.167,-32.1958,-32.4183,-32.3063,-32.2998,-32.2548,-32.2553,-32.257,-31.9481,
5.36,-32.5469,-32.1472,-32.0333,-32.0336,-31.9768,-31.8557,-32.1841,-32.3909,-32.367,-32.0196,-31.6745,-31.3022,-30.9541,-31.4953,-32.2333,-31.0943,-31.6014,-32.7461,-32.277,-32.288,-32.2003,-32.3688,-32.1213,-31.8224,-31.79,-32.0293,-32.038,-32.2637,-32.1631,-32.1998,-32.4036,-32.3192,-32.3078,-32.1605,-32.2189,-31.741,-31.9354,
5.4,-32.4958,-32.1608,-32.06,-32.1051,-32.0208,-31.941,-32.184,-32.386,-32.3713,-32.0354,-31.6769,-31.2796,-30.9959,-31.3701,-31.8771,-31.6641,-31.6576,-32.5661,-32.2631,-32.3007,-32.2263,-32.4043,-32.1134,-31.8693,-31.7435,-32.0213,-31.9764,-32.3096,-32.1855,-32.2142,-32.4585,-32.3117,-32.2878,-31.864,-32.1413,-31.3697,-31.9599,
5.44,-32.5188,-32.2086,-32.0632,-32.109,-32.1807,-32.174,-32.1992,-32.3811,-32.3771,-32.0319,-31.6569,-31.2791,-31.2666,-31.4686,-31.9163,-32.3601,-32.0601,-32.41,-32.2449,-32.2556,-32.1034,-32.3984,-32.1461,-31.8299,-31.8308,-32.0283,-31.9523,-32.3412,-32.1981,-32.2383,-32.43,-32.2888,-32.2786,-31.6247,-32.0808,-31.5103,-31.979,
5.48,-32.5748,-32.2139,-32.0253,-32.0705,-32.7131,-32.2437,-32.2155,-32.3732,-32.3671,-32.0403,-31.7588,-31.3587,-31.7872,-31.5052,-31.8983,-32.3254,-32.6199,-32.2565,-32.2308,-32.2499,-32.0022,-32.3669,-32.1364,-31.8819,-31.883,-32.0343,-31.9467,-32.307,-32.1829,-32.5779,-32.4536,-32.2695,-32.261,-31.8453,-32.0328,-31.8896,-31.9824,
5.52,-32.4914,-32.154,-32.0266,-32.0902,-32.3908,-32.2406,-32.2065,-32.356,-32.3806,-32.0559,-31.8516,-31.465,-31.8985,-31.5713,-31.9446,-32.2346,-32.3293,-32.3613,-32.2362,-32.2542,-31.9098,-32.353,-32.1743,-32.3434,-31.9021,-32.0355,-31.9,-32.2219,-32.1613,-32.3458,-32.448,-32.2867,-32.235,-31.8128,-31.801,-31.7892,-32.0076,
5.56,-32.4199,-32.1348,-32.0602,-32.1304,-32.4429,-32.2759,-32.2006,-32.3496,-32.3965,-32.0652,-31.9065,-31.4948,-31.9321,-31.62,-31.9555,-32.2897,-32.2042,-32.4836,-32.2361,-32.2703,-32.3568,-32.3508,-32.1968,-32.1891,-32.0376,-32.0269,-31.864,-32.1991,-32.1649,-32.3659,-32.4607,-32.3293,-32.2289,-31.854,-31.9364,-31.762,-32.0061,
5.6,-32.3119,-32.1138,-32.0852,-32.1338,-32.3897,-32.2537,-32.1984,-32.3432,-32.3895,-32.0552,-31.8936,-31.1243,-31.7789,-31.6302,-32.0971,-32.2756,-32.2179,-32.43,-32.2271,-32.3063,-32.3305,-32.3498,-32.2121,-32.4427,-32.1176,-32.0321,-31.8365,-32.1787,-32.1367,-32.3082,-32.4757,-32.3541,-32.2175,-31.8763,-31.7211,-31.705,-31.9849,
5.64,-32.2496,-32.0842,-32.0808,-32.1401,-32.4175,-32.2527,-31.8047,-32.3333,-32.3814,-32.0308,-31.8652,-31.6155,-31.7652,-31.6863,-32.1477,-32.3289,-32.2162,-32.4152,-32.2284,-32.0523,-32.1867,-32.3376,-32.2224,-31.8326,-32.302,-32.0415,-31.8802,-32.2235,-32.0953,-32.3557,-32.5007,-32.5244,-32.208,-31.899,-31.6484,-31.67,-31.9968,
5.68,-31.4375,-32.0553,-32.1158,-32.1464,-32.4063,-32.2592,-31.7182,-32.3087,-32.3465,-32.0122,-31.8816,-31.7754,-31.8879,-31.855,-32.1806,-32.3937,-32.2931,-32.622,-32.2232,-31.9974,-32.1687,-32.3458,-32.2489,-32.1055,-32.5426,-32.0601,-31.9114,-32.269,-32.0938,-32.3381,-32.5021,-33.324,-32.1946,-31.8456,-31.4647,-31.6296,-32.01,
5.72,-31.5206,-32.0334,-32.1256,-32.1786,-32.3518,-32.2688,-31.8242,-31.6381,-32.3209,-32.0157,-31.8849,-31.9584,-31.9823,-32.7371,-32.2915,-32.4244,-32.2977,-32.4467,-32.2197,-31.9437,-32.2134,-32.355,-32.2415,-32.0032,-32.4418,-32.0665,-32.6334,-32.1718,-32.113,-32.3645,-32.4751,-32.5216,-32.1848,-31.8374,-31.3181,-31.597,-32.0126,
5.76,-31.5896,-32.0586,-32.1497,-32.1828,-32.3899,-32.2626,-31.9519,-31.6287,-32.3167,-32.0129,-31.9117,-32.1031,-32.1478,-32.8241,-32.4031,-32.4195,-32.3196,-32.4115,-32.2187,-32.03,-32.1896,-32.3532,-32.2414,-31.8362,-32.2229,-32.0648,-32.5601,-32.1299,-32.118,-32.3313,-32.4211,-32.3148,-32.177,-31.8479,-31.358,-31.616,-32.016,
5.8,-31.7471,-32.1059,-32.194,-32.2047,-32.3993,-32.2714,-31.9251,-31.8666,-32.3216,-32.0093,-31.9332,-32.0698,-32.1315,-32.5642,-32.4042,-32.4224,-32.3413,-32.3803,-32.2141,-32.1509,-32.248,-32.3545,-32.2123,-31.7791,-32.0893,-32.0693,-32.2131,-32.1549,-32.1159,-32.2556,-32.3194,-32.2114,-32.1815,-31.8861,-31.5255,-31.6308,-32.0325,
5.84,-31.8304,-32.104,-32.2187,-32.2203,-32.4244,-32.2805,-31.9614,-31.9767,-32.3244,-32.015,-31.9346,-32.0864,-32.1442,-32.1244,-32.4529,-32.4192,-32.3223,-32.5175,-32.2032,-32.2252,-32.2802,-32.3404,-32.1977,-31.9948,-31.9605,-32.0589,-32.0588,-32.1095,-32.1262,-31.6433,-31.8072,-32.0617,-32.2043,-31.9365,-31.8403,-31.6778,-32.038,
5.88,-31.8619,-32.6808,-33.0271,-32.2157,-32.385,-32.2774,-32.0077,-32.018,-32.3933,-32.0336,-31.9884,-32.1726,-32.2041,-32.2673,-32.4297,-32.4057,-32.3012,-32.5776,-32.2037,-32.3007,-32.3019,-32.3493,-32.2117,-32.097,-31.9572,-32.0657,-32.0744,-32.0645,-32.1473,-31.6013,-31.8552,-31.9711,-32.2185,-32.1535,-32.382,-31.7396,-32.0336,
5.92,-32.258,-32.4635,-32.7905,-32.1927,-32.3604,-32.2912,-32.0324,-32.0868,-32.876,-32.0638,-32.0205,-32.2944,-32.1941,-32.3121,-32.3317,-32.4104,-32.287,-32.5799,-32.2142,-32.2993,-32.2701,-32.3578,-32.2138,-32.1193,-32.0511,-32.0806,-32.0147,-32.056,-32.147,-31.7379,-31.9987,-32.2635,-32.2239,-32.6457,-32.393,-31.7321,-32.0202,
5.96,-32.445,-32.538,-32.4017,-32.1885,-32.3076,-32.2731,-32.0721,-32.0619,-32.8615,-32.0838,-31.9913,-32.2688,-32.1304,-32.3581,-32.3246,-32.4141,-32.3096,-32.5894,-32.2156,-32.2687,-32.283,-32.3637,-32.2172,-32.1207,-32.0618,-32.0853,-31.9854,-32.0339,-32.1278,-31.8273,-31.9067,-32.2709,-32.2194,-32.4104,-32.4382,-31.6077,-32.0073,
6,-32.351,-32.4454,-31.4552,-32.0978,-32.3066,-32.2522,-32.0904,-32.0685,-32.7049,-32.1269,-32.0917,-32.279,-32.2498,-32.4251,-32.3374,-32.4355,-32.3524,-32.1541,-32.2045,-32.2581,-32.2703,-32.3586,-32.2299,-32.1604,-32.2888,-32.0982,-32.0407,-32.035,-32.121,-31.856,-32.0068,-32.2868,-32.2243,-32.3555,-32.7077,-31.8807,-32.0171,
