0,-90,-88,-86,-84,-82,-80,-78,-76,-74,-72,-70,-68,-66,-64,-62,-60,-58,-56,-54,-52,-50,-48,-46,-44,-42,-40,-38,-36,-34,-32,-30,-28,-26,-24,-22,-20,-18,-16,-14,-12,-10,-8,-6,-4,-2,0,2,4,6,8,10,12,14,16,18,20,22,24,26,28,30,32,34,36,38,40,42,44,46,48,50,52,54,56,58,60,62,64,66,68,70,72,74,76,78,80,82,84,86,88,90,
6,-24.0099,-25.7181,-26.0971,-26.3431,-26.6163,-26.7948,-26.7456,-26.1567,-27.0392,-27.5511,-27.5718,-27.5028,-27.3783,-27.6061,-27.6872,-27.7842,-28.2567,-28.9285,-28.7522,-28.5119,-28.5158,-28.2147,-27.6129,-27.189,-27.8063,-27.2421,-27.0095,-27.0708,-26.3531,-27.1061,-27.1115,-26.768,-26.0806,-25.6193,-24.1784,-26.1046,-25.4436,-25.2772,-22.8389,-21.7749,-22.2129,-24.9951,-23.9424,-24.7855,-24.4025,-24.6149,-24.8197,-25.2154,-23.7942,-26.1389,-24.8634,-25.4072,-24.0672,-27.0895,-26.7768,-24.9139,-26.5197,-26.2285,-27.6229,-28.3938,-28.5453,-28.6611,-28.5353,-27.4889,-27.6388,-27.5732,-28.2649,-29.2688,-30.3155,-30.6318,-30.2526,-29.358,-28.4785,-27.6473,-27.7749,-27.728,-27.6121,-27.7737,-28.009,-28.3369,-28.0992,-27.8211,-27.3362,-26.765,-26.338,-26.0317,-25.6708,-25.1633,-24.7386,-24.6419,-24.8806,
6.1,-24.0146,-25.397,-25.4264,-24.9428,-26.2338,-26.4277,-26.43,-25.2053,-25.2148,-26.5398,-27.2018,-26.0565,-26.8303,-27.3704,-27.8952,-28.0903,-28.4754,-29.0461,-28.8228,-28.5703,-28.9773,-28.6917,-28.1546,-27.8013,-28.6129,-27.6916,-27.2429,-26.6529,-26.2348,-26.1698,-26.0032,-25.3105,-24.5228,-23.703,-22.399,-24.1947,-22.7427,-23.3568,-20.7976,-19.9258,-20.2001,-23.2695,-21.9159,-23.4761,-22.766,-23.2917,-23.546,-23.6355,-20.9084,-24.4011,-22.4821,-22.8914,-22.3077,-25.1965,-22.84,-23.3378,-25.281,-25.0923,-26.4499,-27.6664,-27.1387,-28.0144,-27.9678,-26.7199,-26.9579,-27.0319,-27.8916,-28.7238,-29.6,-29.9937,-28.8734,-29.1243,-28.5117,-27.8966,-27.753,-27.2308,-26.0768,-26.3078,-26.4771,-25.3996,-27.2027,-26.8625,-26.7218,-26.211,-25.9577,-25.6753,-25.2459,-24.655,-24.0635,-24.0659,-24.2849,
6.2,-23.9582,-24.9766,-24.8431,-24.2961,-25.7335,-25.9374,-25.7869,-24.8151,-24.8798,-25.3307,-26.946,-26.2151,-26.9612,-27.6393,-28.1826,-28.2065,-28.538,-28.9473,-28.909,-28.7584,-28.9098,-28.6521,-28.3397,-28.1372,-28.2604,-27.6353,-27.505,-26.4346,-26.1021,-25.8326,-25.5556,-24.9426,-24.2206,-23.473,-22.477,-23.6975,-21.748,-22.9177,-20.9039,-20.2688,-20.344,-20.4726,-20.6013,-22.9056,-21.4228,-21.1386,-21.715,-21.063,-21.1684,-23.7962,-22.455,-22.8443,-22.5937,-24.7239,-23.2677,-23.6745,-25.07,-25.1683,-26.4732,-27.5866,-27.4003,-28.2446,-27.6985,-26.65,-26.5424,-25.8237,-27.5518,-28.2363,-28.9848,-29.4427,-27.5565,-28.1931,-28.507,-28.0316,-27.7587,-27.0048,-26.1084,-25.9221,-25.909,-24.4479,-24.0314,-26.171,-26.1946,-25.7071,-25.3294,-25.3014,-24.8955,-24.2803,-23.609,-23.1014,-23.8478,
6.3,-23.8736,-24.6808,-24.5342,-24.2299,-25.4216,-25.5991,-24.1583,-24.6888,-24.8197,-25.3316,-26.8971,-26.5355,-27.2715,-28.3743,-28.8176,-28.3488,-28.5919,-29.0019,-28.9119,-28.716,-28.748,-28.2238,-28.3062,-28.2491,-28.3628,-28.0939,-27.9723,-27.0142,-26.5367,-27.7139,-27.1798,-26.3718,-25.8314,-23.8074,-22.9675,-23.7692,-22.5344,-22.9173,-21.2482,-20.6989,-20.6464,-20.8827,-20.7466,-22.6168,-20.6757,-20.7168,-20.951,-21.2139,-21.3636,-23.543,-22.5816,-23.0473,-23.0126,-24.718,-23.8224,-24.1564,-26.2294,-25.6185,-28.3573,-28.4617,-28.0311,-29.0348,-27.7641,-27.1618,-26.1648,-25.7253,-26.9418,-27.3124,-27.8038,-28.7705,-26.9755,-27.6538,-28.4115,-28.1297,-27.8425,-27.3603,-26.4884,-25.9256,-25.2401,-24.4565,-23.9688,-24.4941,-25.7337,-25.2524,-23.2992,-23.5228,-24.631,-24.0225,-23.3891,-22.1579,-23.5158,
6.4,-23.8182,-24.5117,-24.0012,-24.1507,-25.1405,-24.9414,-24.1844,-24.702,-24.9306,-25.673,-27.0764,-27.6193,-27.7952,-28.7734,-28.7201,-28.3796,-28.3202,-28.745,-28.3198,-27.9563,-28.3576,-27.8992,-28.1375,-28.32,-28.7113,-28.6946,-28.5905,-28.7343,-27.1176,-28.9949,-28.2922,-27.818,-27.5964,-26.7522,-24.2267,-23.9471,-23.0747,-23.0332,-21.5612,-21.0432,-20.936,-21.2157,-21.0297,-22.4929,-20.9505,-20.9905,-21.2294,-21.4757,-21.5895,-23.4736,-22.7864,-23.2886,-23.405,-24.8293,-24.261,-24.8444,-26.8467,-27.8342,-28.6101,-28.9713,-28.6017,-29.9166,-29.5175,-28.5661,-26.5869,-25.8896,-25.1443,-24.5083,-24.1669,-24.4725,-25.7085,-26.7396,-28.132,-27.9762,-27.8648,-27.5755,-27.3886,-26.2871,-25.3012,-24.5281,-23.9602,-23.2708,-25.3122,-23.2865,-22.8778,-22.6663,-22.6757,-23.8038,-22.4911,-22.1767,-23.2693,
6.5,-23.1588,-24.3148,-23.6565,-23.9724,-24.4233,-23.5818,-24.1815,-24.973,-25.0546,-25.8428,-27.0527,-27.4969,-27.6182,-27.9989,-28.0284,-28.1074,-27.1172,-28.1739,-27.0492,-26.6327,-27.9796,-27.7429,-28.1499,-28.6371,-29.1853,-29.1781,-30.5093,-30.7705,-27.5395,-29.2519,-28.5252,-28.0901,-27.6753,-27.201,-26.6946,-25.3183,-23.5326,-23.5729,-24.289,-23.0329,-23.821,-21.677,-21.4883,-23.1756,-21.431,-21.4249,-21.6384,-21.8295,-21.8842,-24.4165,-24.4539,-24.9225,-23.9183,-25.0632,-25.2802,-26.7087,-26.9863,-27.9824,-28.5172,-28.8468,-28.8811,-30.3874,-31.9836,-29.4962,-27.8314,-27.6822,-25.5988,-24.8342,-24.3647,-24.3066,-24.3022,-25.1691,-25.3983,-26.4088,-27.6871,-27.3918,-27.1954,-26.4263,-25.5774,-24.7003,-24.0739,-23.5275,-24.6413,-22.8854,-22.8018,-22.6176,-22.5641,-23.6038,-22.2775,-22.1459,-23.0879,
6.6,-22.6506,-24.128,-23.4171,-23.2114,-23.4865,-23.7973,-24.2924,-25.1311,-25.7149,-25.9142,-26.7337,-26.9618,-26.8686,-26.7724,-27.3027,-27.7266,-26.5871,-26.9945,-26.2244,-26.7164,-27.8701,-28.8077,-28.4382,-29.2963,-29.741,-30.4744,-30.4898,-30.0493,-27.6077,-27.49,-27.261,-26.8027,-26.8052,-26.9023,-26.4713,-26.5083,-23.9173,-26.3166,-25.5624,-26.117,-25.6861,-22.2236,-22.0627,-24.487,-22.0461,-21.9991,-22.2219,-22.3209,-25.0975,-25.4577,-25.6059,-25.6291,-26.0482,-26.5758,-26.3789,-26.5375,-26.8013,-27.3817,-26.7162,-27.7348,-28.5134,-29.1572,-31.1148,-30.2163,-31.5498,-28.9722,-26.3665,-25.412,-24.8008,-24.5639,-24.4743,-24.5217,-24.9564,-25.1158,-27.4045,-27.0306,-26.7854,-26.012,-25.6128,-24.8213,-24.1721,-23.6366,-23.3723,-22.9426,-22.746,-22.5328,-22.4441,-22.2358,-22.2465,-22.1579,-22.8274,
6.7,-22.6355,-23.987,-23.2877,-23.2306,-23.539,-24.0094,-24.4188,-25.2743,-25.8729,-25.8548,-25.5514,-26.4362,-25.8693,-25.458,-26.9122,-27.4419,-26.8156,-26.8799,-26.8121,-27.4421,-29.1178,-29.6186,-28.7308,-29.4724,-29.4969,-29.2956,-29.2801,-28.4566,-26.8668,-26.6699,-26.4878,-26.1097,-26.0176,-26.2993,-26.3743,-26.4992,-24.2368,-26.6278,-26.1173,-26.6638,-26.3283,-22.7207,-26.8176,-25.3347,-22.6065,-25.9298,-26.0783,-27.5025,-26.9381,-26.2963,-26.4178,-26.4534,-27.1843,-27.44,-26.9306,-26.7858,-26.7989,-26.7404,-26.3869,-27.1232,-26.9542,-28.1183,-29.719,-30.1683,-31.5702,-29.7546,-28.1263,-27.0537,-25.3032,-24.8521,-24.7365,-24.7557,-24.9023,-25.1535,-27.1278,-26.3426,-26.3363,-25.608,-25.1202,-24.8602,-24.287,-23.7475,-23.5813,-23.0694,-22.7749,-22.5133,-22.3882,-22.1322,-22.1758,-22.1113,-21.829,
6.8,-22.5983,-23.2948,-23.2868,-23.4459,-23.7201,-24.1861,-24.7841,-25.2207,-25.5715,-25.6917,-25.2315,-26.103,-25.3656,-25.6749,-26.8374,-27.0841,-27.4099,-27.4473,-27.3184,-28.895,-29.1734,-29.5654,-28.721,-28.7863,-28.7833,-28.639,-27.9312,-26.6775,-26.5868,-26.3803,-26.3116,-26.0983,-26.0529,-26.2538,-26.5798,-26.7894,-24.52,-26.889,-27.1547,-27.1642,-26.7608,-23.1469,-27.8209,-26.3033,-23.0789,-27.9084,-27.9834,-27.7516,-27.3856,-26.9517,-27.1819,-27.7699,-28.0218,-28.1743,-28.8131,-29.0168,-27.2073,-26.9985,-26.5146,-27.0808,-26.9029,-27.62,-28.2028,-29.5437,-31.213,-31.2702,-31.5346,-30.3343,-25.8257,-26.6697,-25.2289,-25.2549,-25.1862,-25.3398,-27.0604,-25.6872,-26.1371,-25.4471,-24.9832,-24.7411,-24.3437,-23.8037,-23.6646,-23.222,-23.3386,-22.6142,-22.4785,-22.2938,-22.2235,-22.2828,-21.847,
6.9,-22.7397,-23.2403,-23.7055,-23.5916,-23.8817,-24.2919,-24.8269,-24.6325,-25.2685,-25.55,-25.0561,-25.9389,-25.583,-26.0732,-27.1511,-27.2626,-27.4692,-27.2008,-27.4452,-28.3578,-28.7504,-28.5504,-28.4512,-28.6401,-28.5125,-27.9656,-27.3044,-26.7432,-26.542,-26.262,-26.2356,-26.2223,-26.2377,-26.4237,-26.8149,-27.3204,-25.8912,-27.7377,-27.7306,-27.7648,-27.7681,-23.4929,-27.8175,-27.6821,-23.4539,-27.7529,-27.734,-27.6696,-27.476,-27.8684,-28.4011,-29.0765,-29.0017,-29.987,-30.6547,-29.8415,-28.8549,-27.5664,-27.4248,-27.1465,-26.8506,-26.9873,-27.767,-29.1109,-29.8125,-30.7588,-31.0969,-29.9797,-26.1812,-28.2232,-25.5814,-25.6677,-25.9678,-26.3325,-27.669,-26.4397,-26.2262,-26.5711,-25.0025,-24.7473,-24.2654,-23.9999,-23.7117,-23.3429,-23.8281,-23.7237,-23.1585,-22.5453,-22.5552,-22.7145,-22.0756,
7,-22.9156,-23.4743,-24.201,-23.7633,-24.0317,-24.3545,-24.5969,-24.3901,-25.0719,-25.1868,-25.0709,-25.9459,-26.2474,-27.1476,-27.233,-27.1939,-27.2492,-27.1101,-27.5367,-28.2747,-29.4013,-28.7138,-28.7661,-29.0439,-28.6691,-28.0207,-27.3133,-26.8129,-26.4726,-26.2385,-26.2881,-26.3475,-26.528,-26.5298,-26.8967,-27.4151,-27.5797,-27.6211,-27.7326,-27.7903,-27.7754,-27.963,-28.2548,-27.7427,-26.0716,-28.0725,-27.9497,-27.5778,-27.422,-27.6596,-27.9048,-28.2994,-28.3254,-29.0076,-29.7493,-29.8244,-29.6754,-28.4111,-27.7488,-27.1235,-26.5739,-26.7563,-27.4401,-28.213,-29.7234,-30.6456,-30.962,-29.9369,-26.4064,-27.5359,-25.7098,-25.7805,-26.4731,-26.8573,-27.4392,-26.772,-26.4099,-27.2487,-25.3478,-24.9617,-24.4373,-24.1944,-23.7508,-23.7317,-23.7905,-23.8599,-24.0844,-22.8222,-23.9375,-23.1553,-22.4063,
7.1,-23.0773,-23.653,-24.2238,-23.8825,-24.0957,-24.36,-24.4937,-24.3893,-25.0144,-25.2547,-26.1203,-26.6306,-26.9815,-27.0648,-27.1718,-27.284,-27.5235,-27.5833,-28.3361,-30.1136,-30.3381,-29.4943,-29.266,-29.5699,-28.7335,-27.8874,-26.7904,-26.3118,-26.26,-26.1304,-26.1398,-26.1492,-26.2323,-26.4362,-25.9602,-27.015,-26.9829,-27.2194,-26.9223,-27.6222,-27.7374,-28.151,-28.473,-28.1511,-28.7058,-28.6572,-28.488,-28.0487,-27.6783,-27.597,-27.6044,-27.7369,-27.6816,-28.1162,-28.3748,-27.7942,-28.9707,-28.4451,-27.705,-27.0321,-26.3902,-26.4109,-26.3555,-27.6202,-29.1892,-30.486,-31.2837,-30.9314,-29.5512,-28.1337,-25.9262,-25.9763,-26.6455,-26.8191,-27.2359,-27.0656,-26.4911,-27.2179,-25.6448,-25.9607,-24.7561,-24.5796,-24.6835,-24.136,-23.8987,-23.9164,-24.1164,-23.014,-24.0821,-23.4847,-22.7266,
7.2,-23.1599,-23.7006,-24.1698,-23.9216,-24.1122,-24.3477,-24.5172,-24.5295,-25.0823,-25.6812,-26.8356,-27.2,-27.2496,-27.2002,-28.0498,-27.8875,-28.1547,-29.2037,-30.5918,-30.6103,-30.499,-29.3414,-29.1568,-28.4182,-27.9897,-26.3532,-25.9121,-25.8155,-25.9293,-25.8722,-25.8773,-25.8534,-25.8762,-26.1962,-25.5576,-26.5689,-26.3475,-26.8215,-26.3032,-27.3973,-27.4594,-28.1365,-28.5919,-29.2524,-29.0299,-29.0257,-28.8739,-28.4139,-27.9297,-27.9308,-27.5178,-27.4678,-26.6684,-26.5651,-26.679,-27.18,-28.0351,-28.0034,-27.3518,-26.9482,-26.2678,-25.6893,-26.0595,-27.1327,-27.732,-30.0775,-30.856,-30.7168,-30.0108,-28.9741,-27.9165,-26.8321,-27.0572,-27.1797,-28.1866,-27.8071,-26.6455,-27.9882,-25.8845,-26.8703,-26.1568,-24.8583,-25.1743,-24.4502,-24.0453,-24.0808,-24.2271,-23.2095,-24.2394,-23.7047,-24.0115,
7.3,-23.23,-23.8362,-24.2164,-23.9935,-24.1574,-24.4023,-24.6691,-24.7813,-25.2755,-26.1936,-27.3094,-27.6046,-27.8071,-28.6516,-28.6131,-28.433,-29.3323,-30.8539,-30.5786,-30.4811,-29.1092,-28.6141,-28.8011,-27.7702,-26.6161,-26.0589,-25.8913,-25.8003,-25.6555,-25.8006,-25.8163,-25.8139,-25.8232,-26.065,-25.6036,-26.3944,-25.8813,-26.66,-26.2857,-27.1913,-27.0183,-27.7669,-26.7533,-28.2237,-27.7141,-27.7678,-27.6566,-26.9889,-27.2563,-27.1728,-27.2557,-27.0947,-26.0142,-26.0325,-26.4348,-26.994,-27.2427,-27.8358,-27.3218,-26.9193,-26.4368,-25.7361,-25.9991,-26.2504,-27.3337,-29.752,-30.5569,-30.6607,-29.8507,-28.8163,-27.849,-27.1404,-27.0998,-27.3136,-27.9646,-28.0318,-28.7234,-28.4609,-26.1444,-27.1867,-26.7547,-25.4484,-25.3964,-24.6296,-24.1722,-24.1958,-24.3654,-23.3958,-24.3903,-24.0343,-25.0421,
7.4,-23.3327,-24.7649,-24.3163,-24.1077,-24.2427,-24.5066,-24.8992,-25.0946,-25.5031,-27.9644,-27.405,-27.531,-28.1295,-28.6176,-28.8154,-29.5749,-29.7681,-30.3344,-29.9846,-29.0361,-28.3837,-28.1525,-28.3662,-27.0412,-26.7545,-26.2472,-26.0744,-26.2528,-25.9973,-25.8701,-25.8676,-25.8838,-25.8883,-25.9674,-25.8125,-26.0338,-25.6756,-26.4018,-25.5967,-26.7229,-26.1309,-26.959,-25.2245,-26.8574,-25.3852,-25.5969,-25.8047,-26.0693,-26.4122,-26.4144,-26.7886,-26.5977,-25.4459,-25.54,-26.0633,-25.85,-27.0127,-27.6817,-27.4549,-26.9769,-26.6838,-25.9077,-26.1788,-26.345,-27.2805,-28.3825,-29.9788,-31.027,-30.4737,-29.357,-28.0854,-27.3226,-27.0505,-27.0874,-27.6638,-27.6586,-28.4492,-28.6083,-28.519,-27.8536,-27.0362,-26.7665,-25.553,-24.7515,-24.8696,-24.5858,-24.414,-23.5125,-24.4676,-25.1312,-25.1441,
7.5,-23.4484,-24.9049,-25.3495,-24.2206,-24.3584,-25.8495,-25.1322,-25.3652,-26.7814,-27.5529,-27.2668,-27.3875,-28.0106,-28.6621,-29.2097,-29.5974,-29.6413,-30.063,-29.2915,-28.9651,-28.3697,-27.8103,-27.0519,-26.8199,-26.5918,-25.7518,-25.9316,-26.057,-25.9755,-25.8911,-25.8917,-25.8877,-25.8884,-25.8509,-25.6691,-25.3949,-25.4631,-25.9747,-24.509,-25.1765,-25.4761,-26.2901,-24.7138,-25.3368,-24.991,-25.1595,-25.4225,-25.6684,-25.9767,-25.7919,-25.7806,-25.2479,-25.0715,-25.1508,-24.7971,-25.2254,-26.3333,-27.4617,-27.387,-27.026,-26.872,-26.6712,-26.2917,-26.3795,-26.9359,-27.8501,-29.1884,-30.5499,-31.1439,-30.7626,-29.4334,-28.1202,-27.5601,-27.2009,-27.5854,-27.6436,-28.314,-28.5402,-28.5359,-28.33,-27.7127,-27.062,-25.8935,-25.8795,-25.255,-25.2449,-24.7286,-23.6246,-25.0463,-25.1105,-25.1677,
7.6,-24.6833,-24.9116,-25.1521,-24.44,-25.224,-26.5384,-25.6251,-25.5456,-27.1348,-27.356,-27.2907,-27.6439,-28.388,-29.3871,-29.5588,-29.6058,-29.1642,-29.6095,-29.2302,-28.7558,-27.4736,-27.0772,-26.6451,-26.5174,-25.9517,-25.5478,-25.6513,-25.8538,-25.8673,-25.8544,-25.8698,-25.8703,-25.8684,-25.7908,-25.6435,-25.43,-25.4424,-25.1739,-24.7612,-24.6688,-24.9146,-26.0422,-24.7486,-24.7804,-24.9894,-25.1849,-25.433,-25.6278,-26.0179,-25.3275,-24.9362,-24.4691,-24.809,-24.1779,-24.3116,-24.9706,-25.2019,-26.4381,-27.2161,-27.0287,-27.0686,-26.886,-26.4715,-27.0628,-27.0738,-27.7978,-28.9691,-30.2147,-30.7959,-30.4676,-29.9259,-28.8321,-28.3319,-27.3876,-27.6503,-27.8588,-28.2952,-28.6013,-28.6514,-28.3864,-27.9588,-27.2827,-27.0418,-26.2545,-25.48,-25.3218,-24.9808,-23.7358,-25.4155,-25.1849,-25.2325,
7.7,-24.7176,-24.886,-25.1618,-25.6707,-26.2586,-26.5743,-26.807,-26.5302,-26.9967,-27.3995,-27.4573,-27.9046,-29.3254,-29.1882,-29.3556,-28.4667,-28.3835,-28.6608,-28.5652,-27.3026,-26.6884,-26.6421,-26.4584,-25.859,-25.8244,-25.604,-25.6921,-25.8079,-25.8273,-25.8429,-25.849,-25.8516,-25.845,-25.7697,-25.6537,-25.5237,-25.7065,-25.3616,-25.0055,-25.0125,-25.3202,-25.92,-24.9222,-25.0974,-25.1601,-25.2927,-25.6594,-26.31,-26.3628,-25.6792,-25.2612,-24.7492,-24.8617,-24.3705,-24.3355,-24.9621,-25.1267,-25.7615,-27.0751,-27.0148,-27.0319,-26.9119,-26.9923,-27.3011,-27.3469,-28.4898,-29.4631,-30.5358,-30.5649,-30.253,-29.832,-28.9617,-28.3398,-27.4906,-27.6696,-27.8824,-28.1297,-28.5107,-28.2725,-28.3122,-27.9549,-27.6407,-27.1375,-26.4324,-25.688,-25.4333,-24.9862,-24.5712,-25.1356,-25.0802,-25.2092,
7.8,-24.6162,-24.8831,-25.2513,-25.9772,-26.4392,-26.461,-26.8435,-26.7576,-27.0167,-27.3012,-27.5335,-27.9847,-28.7418,-28.8512,-29.0218,-28.2227,-28.1057,-28.2517,-27.481,-27.1093,-26.7606,-26.8704,-26.3408,-25.899,-25.8646,-25.9852,-25.6922,-25.7788,-25.7918,-25.8233,-25.8374,-25.8477,-25.8546,-25.821,-25.7704,-25.7073,-26.0257,-25.662,-25.2389,-25.3052,-25.4894,-25.6402,-25.1594,-25.1859,-25.2804,-25.413,-25.8363,-26.301,-26.4924,-26.0672,-25.7103,-25.1746,-25.3302,-24.7655,-24.6256,-25.3802,-25.374,-26.0874,-27.1574,-27.0466,-27.1263,-27.2869,-26.969,-27.218,-27.4046,-28.4862,-29.5328,-30.6474,-30.5198,-30.722,-30.1547,-29.0797,-28.4922,-27.8584,-27.7343,-27.9258,-28.1002,-28.3957,-28.1128,-28.0484,-27.7909,-27.5348,-27.0898,-26.5584,-26.2552,-25.759,-25.1707,-25.0595,-25.0551,-24.9381,-24.6296,
7.9,-24.7177,-25.498,-25.4023,-26.1066,-26.5477,-26.3932,-26.6911,-26.7322,-27.0857,-27.5216,-27.6783,-28.0884,-28.6206,-28.7115,-28.8521,-28.3039,-28.1914,-28.0728,-27.9186,-27.4426,-27.3609,-27.5338,-26.8329,-26.2385,-26.5613,-26.311,-25.7825,-25.8334,-25.8187,-25.8371,-25.8556,-25.8727,-25.887,-25.8769,-25.8669,-25.8436,-26.1186,-25.9437,-25.4041,-25.4494,-25.5983,-25.5698,-25.2618,-25.2137,-25.2712,-25.4564,-25.8644,-26.3833,-26.9712,-27.1108,-27.3332,-25.6334,-25.8463,-25.205,-24.9579,-26.5538,-26.0109,-26.3852,-27.5292,-27.1068,-27.3273,-27.5599,-27.1049,-27.2972,-27.427,-28.2965,-29.3149,-30.4737,-30.6077,-30.6719,-29.959,-29.1499,-28.699,-28.5487,-27.8644,-28.0464,-28.2822,-28.4522,-28.2622,-28.1481,-27.8074,-27.5183,-26.8536,-26.5189,-26.4154,-26.2226,-25.3311,-25.2899,-25.1381,-25.2205,-24.736,
8,-24.922,-26.0292,-26.3228,-26.6616,-26.7997,-26.5299,-26.7154,-26.81,-27.1641,-27.6428,-27.8803,-27.9063,-28.4773,-28.5415,-28.6505,-28.0392,-28.3246,-28.209,-28.1957,-28.195,-28.139,-27.4705,-26.9483,-26.3997,-26.6917,-26.3897,-26.0379,-25.9432,-25.9214,-25.9011,-25.9291,-25.9502,-25.9645,-25.9952,-26.7604,-26.082,-26.6402,-26.4181,-25.542,-25.5682,-25.6661,-25.612,-25.2893,-25.3051,-25.3532,-25.5424,-25.9623,-26.3185,-27.4441,-28.1311,-28.6056,-28.7023,-27.4326,-27.4642,-27.5084,-26.9083,-27.3124,-26.6588,-27.8576,-28.2769,-27.5593,-27.7831,-27.9696,-27.3828,-27.4657,-28.2506,-29.2538,-30.3869,-30.7576,-30.6265,-29.7523,-28.9187,-28.3749,-28.289,-27.9105,-28.2331,-28.4377,-28.5579,-28.4508,-28.3954,-28.0825,-27.5996,-27.0033,-26.4782,-26.23,-26.021,-25.6106,-25.3869,-25.2287,-25.4649,-24.9449,
